[
  {
    "id": "4925782757892",
    "name": "ESZ Aufzug 1",
    "address": "Rudower Chaussee 26, 12489 Berlin"
  },
  {
    "id": "4925782757893",
    "name": "ESZ Aufzug 2",
    "address": "Rudower Chaussee 26, 12489 Berlin"
  },
  {
    "id": "4925782757894",
    "name": "ESZ Aufzug 3",
    "address": "Rudower Chaussee 26, 12489 Berlin"
  },
  {
    "id": "4925782757895",
    "name": "ESZ Aufzug 4",
    "address": "Rudower Chaussee 26, 12489 Berlin"
  }
]