{
  "hosting": {
    "public": "dist",
    "ignore": [
      "firebase.json",
      "**/.*",
      "**/node_modules/**"
    ],
    "rewrites": [
      {
        "source": "**",
        "destination": "/index.html"
      }
    ],
    "headers": [{
      "source" : "**",
      "headers" : [{
        "key" : "Access-Control-Allow-Origin",
        "value" : "*"
      }]
    }]
  }
}
